Conducting a simulation study
…
#> Warning in metric(model, "APPA"): Internal metric(s) "APPA" are not defined.
#> Returning NA.

#> Warning in metric(model, "APPA"): Internal metric(s) "APPA" are not defined.
#> Returning NA.

#> Warning in metric(model, "APPA"): Internal metric(s) "APPA" are not defined.
#> Returning NA.

The result table contains a results column containing the fitted models.

result
#> # A tibble: 120 x 15
#>    fun     numTraj randomScales data.seed replications proc    method  nClusters
#>    <chr>     <dbl>        <dbl>     <int>        <int> <chr>   <chr>       <int>
#>  1 dataGen      50          0.1         1            1 latrend lcMeth~         1
#>  2 dataGen      50          0.1         1            1 latrend lcMeth~         2
#>  3 dataGen      50          0.1         1            1 latrend lcMeth~         3
#>  4 dataGen      50          0.1         1            1 fitGCKM lcMeth~         1
#>  5 dataGen      50          0.1         1            1 fitGCKM lcMeth~         1
#>  6 dataGen      50          0.1         1            1 fitGCKM lcMeth~         2
#>  7 dataGen      50          0.1         1            1 fitGCKM lcMeth~         2
#>  8 dataGen      50          0.1         1            1 fitGCKM lcMeth~         3
#>  9 dataGen      50          0.1         1            1 fitGCKM lcMeth~         3
#> 10 dataGen      50          0.1         1            1 fitGCKM lcMeth~         1
#> # ... with 110 more rows, and 7 more variables: seed <dbl>, response <chr>,
#> #   type <chr>, BIC <dbl>, APPA <dbl>, WMAE <dbl>, ARI <dbl>
…
